<svg width="28" height="28" viewBox="0 0 28 28" fill="none" xmlns="http://www.w3.org/2000/svg">
<circle cx="10.5" cy="10.5" r="10" stroke="#A2A2A2"/>
<line x1="27.6464" y1="27.3536" x2="17.6464" y2="17.3536" stroke="#A1A1A1"/>
</svg>
